…
Add stratification; by default, don't consider nested strata.

```{r}
> mtcars %>% run_correlations(
+     mpg,
+     stratification_vars = c(cyl, gear),
+     disp, hp, drat, wt, qsec
+ )
# A tibble: 30 × 11
   stratification_family   cyl  gear predictor outcome method  n_pair    cor p_value directionality
   <chr>                 <dbl> <dbl> <chr>     <chr>   <chr>    <int>  <dbl>   <dbl> <chr>         
 1 cyl                       4    NA disp      mpg     pearson     11 -0.805 0.00278 two.sided     
 2 cyl                       4    NA drat      mpg     pearson     11  0.424 0.193   two.sided     
 3 cyl                       4    NA hp        mpg     pearson     11 -0.524 0.0984  two.sided     
 4 cyl                       4    NA qsec      mpg     pearson     11 -0.236 0.485   two.sided     
 5 cyl                       4    NA wt        mpg     pearson     11 -0.713 0.0137  two.sided     
 6 cyl                       6    NA disp      mpg     pearson      7  0.103 0.826   two.sided     
 7 cyl                       6    NA drat      mpg     pearson      7  0.115 0.807   two.sided     
 8 cyl                       6    NA hp        mpg     pearson      7 -0.127 0.786   two.sided     
 9 cyl                       6    NA qsec      mpg     pearson      7 -0.419 0.350   two.sided     
10 cyl                       6    NA wt        mpg     pearson      7 -0.682 0.0918  two.sided     
# ℹ 20 more rows
# ℹ 1 more variable: p_bonf <dbl>
# ℹ Use `print(n = ...)` to see more rows
```
…
